<?xml version="1.0" encoding="UTF-8"?>
<svg width="72px" height="60px" viewBox="0 0 72 60" version="1.1" xmlns="http://www.w3.org/2000/svg" xmlns:xlink="http://www.w3.org/1999/xlink">
    <!-- Generator: Sketch 41.2 (35397) - http://www.bohemiancoding.com/sketch -->
    <title>data-storage</title>
    <desc>Created with Sketch.</desc>
    <defs></defs>
    <g id="Page-1" stroke="none" stroke-width="1" fill="none" fill-rule="evenodd">
        <g id="Landing-Page" transform="translate(-295.000000, -1314.000000)" fill="#2176FF">
            <g id="sales-pitch" transform="translate(155.000000, 687.000000)">
                <g id="ssd-copy-2" transform="translate(0.000000, 627.000000)">
                    <g id="Group-15">
                        <g id="data-storage" transform="translate(140.000000, 0.000000)">
                            <g id="Layer_1">
                                <path d="M4.02777778,29.805 L4.02777778,35.3113889 C4.02777778,37.5208333 5.79736111,39.7993056 8.8825,41.5622222 C10.2283333,42.33125 11.7486111,42.9704167 13.3961111,43.4690278 C14.0284722,40.6281944 15.3555556,37.95875 17.2866667,35.7151389 C17.5169444,35.4475 17.7568056,35.1897222 18.00125,34.9372222 C12.3393056,34.2929167 7.44722222,32.4379167 4.02777778,29.805 Z" id="Shape"></path>
                                <path d="M22.4594444,22.0047222 C16.7009722,22.0047222 11.2475,20.7494444 7.10333333,18.4702778 C5.94569444,17.8334722 4.91777778,17.1334722 4.0275,16.3805556 L4.0275,20.3044444 L4.0275,20.6045833 C4.0275,22.8140278 5.79708333,25.0922222 8.88222222,26.8552778 C12.4670833,28.90375 17.2888889,30.0320833 22.4593056,30.0320833 C23.7744444,30.0320833 25.0668056,29.9583333 26.3222222,29.8156944 C27.3848611,26.2947222 29.3576389,23.2048611 31.9465278,20.7879167 C29.015,21.5826389 25.7891667,22.0047222 22.4594444,22.0047222 Z" id="Shape"></path>
                                <path d="M22.4594444,0.0491666667 C12.2163889,0.0491666667 5.07819444,4.47583333 5.07819444,8.44861111 C5.07819444,12.4213889 12.2163889,16.8480556 22.4594444,16.8480556 C32.7025,16.8480556 39.8406944,12.4213889 39.8406944,8.44861111 C39.8406944,4.47583333 32.7025,0.0491666667 22.4594444,0.0491666667 Z" id="Shape"></path>
                                <path d="M63.0015278,37.3133333 L61.2931944,36.7706944 L61.2069444,34.9801389 C60.8134722,26.8141667 54.09625,20.4175 45.9144444,20.4175 C38.6168056,20.4175 32.29875,25.6122222 30.8915278,32.7690278 L30.545,34.5311111 L28.7720833,34.8169444 C22.7045833,35.7947222 18.1290278,41.1629167 18.1290278,47.3031944 C18.1290278,54.2768056 23.8027778,59.9505556 30.7763889,59.9505556 L59.5236111,59.9505556 C65.9130556,59.9505556 71.1111111,54.7522222 71.1111111,48.3629167 C71.1111111,43.3740278 67.77625,38.8301389 63.0015278,37.3133333 Z" id="Shape"></path>
                                <path d="M45.5491667,2.6275 L45.5491667,7.78402778 C49.8141667,7.78402778 53.2838889,11.2538889 53.2838889,15.51875 L58.4404167,15.51875 C58.4404167,8.41041667 52.6573611,2.6275 45.5491667,2.6275 Z" id="Shape"></path>
                                <path d="M5.15652778,44.7388889 L0,44.7388889 C0,51.8470833 5.78305556,57.6301389 12.89125,57.6301389 L12.89125,52.4736111 C8.62625,52.4736111 5.15652778,49.0038889 5.15652778,44.7388889 Z" id="Shape"></path>
                            </g>
                        </g>
                    </g>
                </g>
            </g>
        </g>
    </g>
</svg>