<?xml version="1.0" encoding="UTF-8"?>
<svg width="80px" height="60px" viewBox="0 0 80 60" version="1.1" xmlns="http://www.w3.org/2000/svg" xmlns:xlink="http://www.w3.org/1999/xlink">
    <!-- Generator: Sketch 41.2 (35397) - http://www.bohemiancoding.com/sketch -->
    <title>code</title>
    <desc>Created with Sketch.</desc>
    <defs></defs>
    <g id="Page-1" stroke="none" stroke-width="1" fill="none" fill-rule="evenodd">
        <g id="Landing-Page" transform="translate(-684.000000, -1038.000000)" fill="#2176FF">
            <g id="sales-pitch" transform="translate(155.000000, 687.000000)">
                <g id="Group-16" transform="translate(393.000000, 351.000000)">
                    <g id="code" transform="translate(136.000000, 0.000000)">
                        <g id="Capa_1">
                            <g id="Group">
                                <path d="M49.7346565,0.841679389 L47.0314504,0.100610687 C46.6835115,-0.0154198473 46.3407634,0.0210687023 46.0074809,0.209770992 C45.6731298,0.398625954 45.4473282,0.682137405 45.3312977,1.05984733 L29.0726718,57.3328244 C28.9566412,57.710687 28.9929771,58.0670229 29.1818321,58.4007634 C29.370687,58.7351145 29.6535878,58.9603053 30.0319084,59.0763359 L32.7343511,59.8177099 C33.0830534,59.9346565 33.4245802,59.8980153 33.7587786,59.7090076 C34.0931298,59.5192366 34.3184733,59.2366412 34.4343511,58.859542 L50.6934351,2.58564885 C50.809313,2.20793893 50.7732824,1.85160305 50.5841221,1.51709924 C50.3951145,1.18274809 50.1125191,0.957557252 49.7346565,0.841679389 Z" id="Shape"></path>
                                <path d="M25.3690076,11.8267176 C25.3690076,11.4490076 25.2235115,11.1145038 24.9329771,10.8241221 L22.7532824,8.64458015 C22.4627481,8.3540458 22.1283969,8.20839695 21.750687,8.20839695 C21.3729771,8.20839695 21.0384733,8.35419847 20.7480916,8.64458015 L0.436030534,28.9566412 C0.145038168,29.2471756 0,29.5815267 0,29.9592366 C0,30.3369466 0.145496183,30.6712977 0.436030534,30.9616794 L20.7479389,51.2737405 C21.0383206,51.5647328 21.3722137,51.7094656 21.7505344,51.7094656 C22.128855,51.7094656 22.4627481,51.5642748 22.7531298,51.2737405 L24.9328244,49.0954198 C25.2233588,48.8050382 25.368855,48.4705344 25.368855,48.0923664 C25.368855,47.7151145 25.2233588,47.3807634 24.9328244,47.0903817 L7.80259542,29.9592366 L24.9329771,12.829313 C25.2239695,12.5389313 25.3690076,12.2044275 25.3690076,11.8267176 Z" id="Shape"></path>
                                <path d="M79.3303817,28.9561832 L59.0178626,8.64412214 C58.7274809,8.35374046 58.3929771,8.20793893 58.0158779,8.20793893 C57.6375573,8.20793893 57.3042748,8.35374046 57.0128244,8.64412214 L54.8340458,10.8235115 C54.5436641,11.1140458 54.3987786,11.4479389 54.3987786,11.8261069 C54.3987786,12.2042748 54.5435115,12.5383206 54.8340458,12.8287023 L71.9647328,29.959084 L54.8340458,47.0903817 C54.5436641,47.3807634 54.3987786,47.7152672 54.3987786,48.0923664 C54.3987786,48.470687 54.5435115,48.8050382 54.8340458,49.0954198 L57.0128244,51.2737405 C57.3042748,51.5647328 57.6377099,51.7094656 58.0158779,51.7094656 C58.3931298,51.7094656 58.7274809,51.5642748 59.0178626,51.2737405 L79.3303817,30.9618321 C79.620916,30.6714504 79.7661069,30.3364885 79.7661069,29.9587786 C79.7661069,29.580916 79.620916,29.2465649 79.3303817,28.9561832 Z" id="Shape"></path>
                            </g>
                        </g>
                    </g>
                </g>
            </g>
        </g>
    </g>
</svg>